{
    "/js/app.js": "/js/app.js?id=76a9c8bfd9305d803ef1",
    "/css/app.css": "/css/app.css?id=1c3d1af2ae91f0a9c58b",
    "/css/auth.css": "/css/auth.css?id=452a002710d80b3af4cb",
    "/js/app.js.map": "/js/app.js.map?id=ba6b85273b49bbecfe6f",
    "/css/app.css.map": "/css/app.css.map?id=9281c8d026389f975c38",
    "/css/auth.css.map": "/css/auth.css.map?id=8f58666fb1cd13970494",
    "/js/vendor.js": "/js/vendor.js?id=1dd22d0981d6330a3046",
    "/js/vendor.js.map": "/js/vendor.js.map?id=c2643acf7bea1d3247b7",
    "/js/manifest.js": "/js/manifest.js?id=d64713044d4b02b1808b",
    "/js/manifest.js.map": "/js/manifest.js.map?id=73b6574600e0ccf9042c"
}
